Digging for Gold
…
)
for (i in 0:5) {
  for (j in 0:4) {
    idx <- i*5 + j + 1
    results[idx,"sell_m2"] <- i
    results[idx,"find_m3"] <- j
    profits <- profits_with_actions(env1, env2, params, sell_m2=i, find_m3=j)
    results[idx,"y5_foreclosure"] <- 
      sum(profits$financial_position$Year5 == "Foreclosure")
  }
}
rm(i, j, idx)
results %>% arrange(y5_foreclosure)

## # A tibble: 30 x 3
##    sell_m2 find_m3 y5_foreclosure
##      <int>   <int>          <int>
##  1       0       0         391297
##  2       0       4         405104
##  3       5       0         413083
##  4       5       4         433292
##  5       0       3         434685
##  6       5       3         455872
##  7       4       0         471344
##  8       0       2         473662
##  9       5       2         485566
## 10       4       4         494261
## # ... with 20 more rows
…
)
for (i in 0:5) {
  for (j in 0:4) {
    idx <- i*5 + j + 1
    results[idx,"sell_m2"] <- i
    results[idx,"find_m3"] <- j
    profits <- profits_with_actions(env3, env4, params, sell_m2=i, find_m3=j)
    results[idx,"y5_foreclosure"] <- 
      sum(profits$financial_position$Year5 == "Foreclosure")
  }
}
rm(i, j, idx)
results %>% arrange(y5_foreclosure)

## # A tibble: 30 x 3
##    sell_m2 find_m3 y5_foreclosure
##      <int>   <int>          <int>
##  1       0       1             70
##  2       1       1             74
##  3       5       1             76
##  4       4       1             77
##  5       0       2             91
##  6       3       1             91
##  7       5       2             97
##  8       1       2            103
##  9       0       3            116
## 10       5       3            118
## # ... with 20 more rows
…
)
for (i in 0:5) {
  for (j in 1:6) {
    idx <- i*6 + j
    results[idx,"sell_m2"] <- i
    results[idx,"search_strength"] <- j
    profits <- profits_with_search(env3, env4, params, sell_m2=i, search=j)
    results[idx,"y5_foreclosure"] <- 
      sum(profits$financial_position$Year5 == "Foreclosure")
  }
}
rm(i, j, idx)
results %>% arrange(y5_foreclosure)

## # A tibble: 36 x 3
##    sell_m2 search_strength y5_foreclosure
##      <int>           <int>          <int>
##  1       0               1            190
##  2       5               1            190
##  3       1               1            231
##  4       4               1            283
##  5       3               1            345
##  6       0               2            577
##  7       5               2            610
##  8       2               1            713
##  9       4               2            813
## 10       1               2            885
## # ... with 26 more rows
…
for (i in 0:5) {
  for (j in 1:6) {
    idx <- i*6 + j
    results[idx,"sell_m2"] <- i
    results[idx,"search_strength"] <- j
    profits <- profits_with_search(env3, env4, params, sell_m2=i, search=j)
    results[idx,"y5_foreclosure"] <- 
      sum(profits$financial_position$Year5 == "Foreclosure")
    results[idx, "median_cash_y5"] <- median(profits$cash$Year5[[1]])
  }
}
rm(i, j, idx)
results %>% arrange(desc(median_cash_y5))

## # A tibble: 36 x 4
##    sell_m2 search_strength y5_foreclosure median_cash_y5
##      <int>           <int>          <int>          <dbl>
##  1       0               2            585       12193062
##  2       0               1            200       12021712
##  3       0               3           2126       11802191
##  4       5               2            612       11217297
##  5       0               4           8798       11216377
##  6       5               1            193       11047730
##  7       5               3           2312       10830019
##  8       0               5          23885       10724327
##  9       5               4           8861       10254199
## 10       0               6          52387       10217765
## # ... with 26 more rows
…
